<?xml version="1.0" encoding="UTF-8" standalone="no"?>
<svg
   xmlns:dc="http://purl.org/dc/elements/1.1/"
   xmlns:cc="http://creativecommons.org/ns#"
   xmlns:rdf="http://www.w3.org/1999/02/22-rdf-syntax-ns#"
   xmlns:svg="http://www.w3.org/2000/svg"
   xmlns="http://www.w3.org/2000/svg"
   viewBox="0 0 302.36268 302.36268"
   height="302.36267"
   width="302.36267"
   xml:space="preserve"
   id="svg2"
   version="1.1"><metadata
     id="metadata8"><rdf:RDF><cc:Work
         rdf:about=""><dc:format>image/svg+xml</dc:format><dc:type
           rdf:resource="http://purl.org/dc/dcmitype/StillImage" /><dc:title></dc:title></cc:Work></rdf:RDF></metadata><defs
     id="defs6" /><g
     transform="matrix(1.3333333,0,0,-1.3333333,0,302.36266)"
     id="g10"><g
       transform="scale(0.1)"
       id="g12"><path
         id="path14"
         style="fill:currentColor;fill-opacity:1;fill-rule:nonzero;stroke:none"
         d="m 657.688,1124.87 c 0,141.4 46.324,274.17 137.679,394.64 l 10.879,14.35 -111.312,104.44 -13.653,-15.36 c -52.07,-58.59 -77.332,-97.72 -108.066,-167.41 -48.184,-107.87 -72.613,-217.39 -72.613,-325.52 0,-173.069 55.125,-327.022 173.488,-484.479 l 12.762,-16.98 120.136,102.187 -11.789,15.114 C 703.949,862.891 657.688,990.41 657.688,1124.87" /><path
         id="path16"
         style="fill:currentColor;fill-opacity:1;fill-rule:nonzero;stroke:none"
         d="m 1593.59,1621.72 -12.69,16.77 -120.23,-100.88 11.84,-15.21 c 91.25,-117.33 137.52,-245.2 137.52,-380.07 0,-140.4 -47.59,-276.842 -137.63,-394.58 l -10.98,-14.359 111.36,-104.481 13.65,15.352 c 52.08,58.59 77.34,97.718 108.08,167.418 48.18,107.871 72.61,217.39 72.61,325.51 0,174.13 -55.14,328.09 -173.53,484.53" /><path
         id="path18"
         style="fill:currentColor;fill-opacity:1;fill-rule:nonzero;stroke:none"
         d="m 1133.85,987.531 c -79.78,0 -119.69,68.959 -119.69,145.919 0,76.93 39.91,145.91 119.69,145.91 79.79,0 119.71,-68.98 119.71,-145.91 0,-76.96 -39.92,-145.919 -119.71,-145.919 z m 0,435.239 c -136.998,0 -275.678,-99.38 -275.678,-289.32 0,-189.981 138.68,-289.38 275.678,-289.38 137,0 275.7,99.399 275.7,289.38 0,189.94 -138.7,289.32 -275.7,289.32" /><path
         id="path20"
         style="fill:currentColor;fill-opacity:1;fill-rule:nonzero;stroke:none"
         d="M 2267.72,2267.72 H 0 V 0 h 2267.72 z m -160,-160 V 160 H 160 v 1947.72 h 1947.72" /></g></g></svg>